\relax 
\citation{Lab1}
\@writefile{toc}{\contentsline {section}{\numberline {I}Introduction}{1}}
\@writefile{toc}{\contentsline {section}{\numberline {II}Simulator Installation and Setup}{1}}
\newlabel{s:install}{{II}{1}}
\newlabel{cref@s:install}{{[section][2][]II}{1}}
\@writefile{toc}{\contentsline {subsection}{\numberline {\unhbox \voidb@x \hbox {II-A}}Install Virtual Box}{1}}
\@writefile{lof}{\contentsline {figure}{\numberline {1}{\ignorespaces Preliminary Step 1: VirtualBox Download \& Installation on the MacBook (download site: \texttt  {https://www.virtualbox.org/wiki/Downloads})}}{1}}
\newlabel{f:virtualBox}{{1}{1}}
\newlabel{cref@f:virtualBox}{{[figure][1][]1}{1}}
\@writefile{toc}{\contentsline {subsection}{\numberline {\unhbox \voidb@x \hbox {II-B}}Install Linux (Ubuntu)}{1}}
\@writefile{lof}{\contentsline {figure}{\numberline {2}{\ignorespaces Preliminary Step 2: Ubuntu (Guest) Download \& Installation on the VirtualBox (download site: \texttt  {http://releases.ubuntu.com/16.04/})}}{1}}
\newlabel{f:ubuntu}{{2}{1}}
\newlabel{cref@f:ubuntu}{{[figure][2][]2}{1}}
\@writefile{toc}{\contentsline {subsection}{\numberline {\unhbox \voidb@x \hbox {II-C}}Install ModelSim - Intel FPGA Starter Edition}{1}}
\@writefile{lof}{\contentsline {figure}{\numberline {3}{\ignorespaces Installation of ModelSim on the Linux VirtualBox (download site: \texttt  {https://www.intel.com/content/www/us/en/programmable/\penalty -\@M downloads/download-center.html})}}{2}}
\newlabel{f:intel}{{3}{2}}
\newlabel{cref@f:intel}{{[figure][3][]3}{2}}
\@writefile{toc}{\contentsline {subsection}{\numberline {\unhbox \voidb@x \hbox {II-D}}ModelSim on the Linux}{2}}
\@writefile{lof}{\contentsline {figure}{\numberline {4}{\ignorespaces Installed ModelSim}}{2}}
\newlabel{f:setup0}{{4}{2}}
\newlabel{cref@f:setup0}{{[figure][4][]4}{2}}
\@writefile{lof}{\contentsline {figure}{\numberline {5}{\ignorespaces Modification of default fontsize in ModelSim}}{2}}
\newlabel{f:textsize}{{5}{2}}
\newlabel{cref@f:textsize}{{[figure][5][]5}{2}}
\@writefile{toc}{\contentsline {section}{\numberline {III}Steps of Simulation Project Creation}{2}}
\newlabel{s:project}{{III}{2}}
\newlabel{cref@s:project}{{[section][3][]III}{2}}
\@writefile{lof}{\contentsline {figure}{\numberline {6}{\ignorespaces Step 1: Launch ModelSim (via command-line \texttt  {vsim}}}{2}}
\newlabel{f:setup1}{{6}{2}}
\newlabel{cref@f:setup1}{{[figure][6][]6}{2}}
\@writefile{lof}{\contentsline {figure}{\numberline {7}{\ignorespaces Step 2: Layout of Main Window}}{2}}
\newlabel{f:setup2}{{7}{2}}
\newlabel{cref@f:setup2}{{[figure][7][]7}{2}}
\@writefile{lof}{\contentsline {figure}{\numberline {8}{\ignorespaces Step 3: New Project Menu}}{3}}
\newlabel{f:setup3}{{8}{3}}
\newlabel{cref@f:setup3}{{[figure][8][]8}{3}}
\@writefile{lof}{\contentsline {figure}{\numberline {9}{\ignorespaces Step 4: Create New Project}}{3}}
\newlabel{f:setup4}{{9}{3}}
\newlabel{cref@f:setup4}{{[figure][9][]9}{3}}
\@writefile{lof}{\contentsline {figure}{\numberline {10}{\ignorespaces Step 5: Add Existing Files}}{3}}
\newlabel{f:setup5}{{10}{3}}
\newlabel{cref@f:setup5}{{[figure][10][]10}{3}}
\@writefile{lof}{\contentsline {figure}{\numberline {11}{\ignorespaces Step 6: Browse Files}}{3}}
\newlabel{f:setup6}{{11}{3}}
\newlabel{cref@f:setup6}{{[figure][11][]11}{3}}
\@writefile{lof}{\contentsline {figure}{\numberline {12}{\ignorespaces Step 7: Select Files}}{3}}
\newlabel{f:setup7}{{12}{3}}
\newlabel{cref@f:setup7}{{[figure][12][]12}{3}}
\@writefile{lof}{\contentsline {figure}{\numberline {13}{\ignorespaces Step 8: Load Files to the New Project}}{3}}
\newlabel{f:setup8}{{13}{3}}
\newlabel{cref@f:setup8}{{[figure][13][]13}{3}}
\@writefile{lof}{\contentsline {figure}{\numberline {14}{\ignorespaces Step 9: Select Files to be Compiled}}{4}}
\newlabel{f:setup9}{{14}{4}}
\newlabel{cref@f:setup9}{{[figure][14][]14}{4}}
\@writefile{lof}{\contentsline {figure}{\numberline {15}{\ignorespaces Step 10: Complied All}}{4}}
\newlabel{f:setup10}{{15}{4}}
\newlabel{cref@f:setup10}{{[figure][15][]15}{4}}
\@writefile{lof}{\contentsline {figure}{\numberline {16}{\ignorespaces Step 11: Library Pane}}{4}}
\newlabel{f:setup11}{{16}{4}}
\newlabel{cref@f:setup11}{{[figure][16][]16}{4}}
\@writefile{lof}{\contentsline {figure}{\numberline {17}{\ignorespaces Step 12: Loaded Library}}{4}}
\newlabel{f:setup12}{{17}{4}}
\newlabel{cref@f:setup12}{{[figure][17][]17}{4}}
\@writefile{lof}{\contentsline {figure}{\numberline {18}{\ignorespaces Step 13: Add New Wave}}{4}}
\newlabel{f:setup13}{{18}{4}}
\newlabel{cref@f:setup13}{{[figure][18][]18}{4}}
\@writefile{lof}{\contentsline {figure}{\numberline {19}{\ignorespaces Step 14: Select Radix Representation}}{4}}
\newlabel{f:setup14}{{19}{4}}
\newlabel{cref@f:setup14}{{[figure][19][]19}{4}}
\citation{Harris4}
\@writefile{lof}{\contentsline {figure}{\numberline {20}{\ignorespaces Step 15: Run-All}}{5}}
\newlabel{f:setup15}{{20}{5}}
\newlabel{cref@f:setup15}{{[figure][20][]20}{5}}
\@writefile{toc}{\contentsline {section}{\numberline {IV}Requirements for ALU}{5}}
\newlabel{s:req}{{IV}{5}}
\newlabel{cref@s:req}{{[section][4][]IV}{5}}
\@writefile{lof}{\contentsline {figure}{\numberline {21}{\ignorespaces Interface Diagram for ALU}}{5}}
\newlabel{f:alu}{{21}{5}}
\newlabel{cref@f:alu}{{[figure][21][]21}{5}}
\@writefile{toc}{\contentsline {section}{\numberline {V}Design/Implementation of ALU}{5}}
\newlabel{s:alu}{{V}{5}}
\newlabel{cref@s:alu}{{[section][5][]V}{5}}
\@writefile{lof}{\contentsline {figure}{\numberline {22}{\ignorespaces C-API for ALU}}{5}}
\newlabel{f:C-API-ALU}{{22}{5}}
\newlabel{cref@f:C-API-ALU}{{[figure][22][]22}{5}}
\newlabel{code:prj-def}{{1}{5}}
\newlabel{cref@code:prj-def}{{[listing][1][]1}{5}}
\@writefile{lol}{\contentsline {lstlisting}{\numberline {1}Pre-defined Parameters in Verilog for Project1}{5}}
\@writefile{toc}{\contentsline {section}{\numberline {VI}Test Strategy \& Test Implementation}{5}}
\newlabel{s:test}{{VI}{5}}
\newlabel{cref@s:test}{{[section][6][]VI}{5}}
\newlabel{code:alu}{{2}{6}}
\newlabel{cref@code:alu}{{[listing][2][]2}{6}}
\@writefile{lol}{\contentsline {lstlisting}{\numberline {2}ALU Module in Verilog}{6}}
\newlabel{code:testbench}{{3}{6}}
\newlabel{cref@code:testbench}{{[listing][3][]3}{6}}
\@writefile{lol}{\contentsline {lstlisting}{\numberline {3}Test Bench for ALU Module in Verilog}{6}}
\citation{Lect2}
\@writefile{toc}{\contentsline {section}{\numberline {VII}Results}{7}}
\newlabel{s:result}{{VII}{7}}
\newlabel{cref@s:result}{{[section][7][]VII}{7}}
\@writefile{toc}{\contentsline {subsection}{\numberline {\unhbox \voidb@x \hbox {VII-A}}Text Output}{7}}
\@writefile{toc}{\contentsline {subsection}{\numberline {\unhbox \voidb@x \hbox {VII-B}}Observation of Waveforms from Simulator}{7}}
\@writefile{toc}{\contentsline {subsubsection}{\numberline {\unhbox \voidb@x \hbox {VII-B}1}Integer Addition, Subtraction and Multiplication}{7}}
\@writefile{toc}{\contentsline {subsubsection}{\numberline {\unhbox \voidb@x \hbox {VII-B}2}Bit-wise Shifts}{7}}
\@writefile{toc}{\contentsline {subsubsection}{\numberline {\unhbox \voidb@x \hbox {VII-B}3}Logical AND, OR and NOR}{7}}
\@writefile{lof}{\contentsline {figure}{\numberline {23}{\ignorespaces Test Bench Diagram for Testing for ALU under Test}}{7}}
\newlabel{f:testbench}{{23}{7}}
\newlabel{cref@f:testbench}{{[figure][23][]23}{7}}
\@writefile{lof}{\contentsline {figure}{\numberline {24}{\ignorespaces Test Results in Transcript Window}}{7}}
\newlabel{f:test-result}{{24}{7}}
\newlabel{cref@f:test-result}{{[figure][24][]24}{7}}
\@writefile{lof}{\contentsline {figure}{\numberline {25}{\ignorespaces Overall Waveform of ALU after Run-All}}{7}}
\newlabel{f:runall}{{25}{7}}
\newlabel{cref@f:runall}{{[figure][25][]25}{7}}
\@writefile{lof}{\contentsline {figure}{\numberline {26}{\ignorespaces Integer Addition (0x1), Subtraction (0x2) and Multiplication (0x3)}}{7}}
\newlabel{f:oprn1-3}{{26}{7}}
\newlabel{cref@f:oprn1-3}{{[figure][26][]26}{7}}
\@writefile{toc}{\contentsline {subsubsection}{\numberline {\unhbox \voidb@x \hbox {VII-B}4}Set Less Than Operation}{7}}
\@writefile{toc}{\contentsline {section}{\numberline {VIII}Conclusion}{7}}
\newlabel{s:conclusion}{{VIII}{7}}
\newlabel{cref@s:conclusion}{{[section][8][]VIII}{7}}
\bibcite{Lab1}{1}
\bibcite{Lect1}{2}
\bibcite{Lect2}{3}
\bibcite{Harris5}{4}
\bibcite{Harris4}{5}
\@writefile{lof}{\contentsline {figure}{\numberline {27}{\ignorespaces Bit-wise Shift-Right (0x4) and Shift-Left (0x5)}}{8}}
\newlabel{f:oprn4-5}{{27}{8}}
\newlabel{cref@f:oprn4-5}{{[figure][27][]27}{8}}
\@writefile{lof}{\contentsline {figure}{\numberline {28}{\ignorespaces Logical AND (0x6), OR (0x7) and NOR (0x8)}}{8}}
\newlabel{f:oprn6-8}{{28}{8}}
\newlabel{cref@f:oprn6-8}{{[figure][28][]28}{8}}
\@writefile{lof}{\contentsline {figure}{\numberline {29}{\ignorespaces Set op1 less than op2 as 1 (0x9)}}{8}}
\newlabel{f:oprn9}{{29}{8}}
\newlabel{cref@f:oprn9}{{[figure][29][]29}{8}}
\@writefile{toc}{\contentsline {section}{References}{8}}
