\relax 
\@writefile{toc}{\contentsline {section}{\numberline {I}\relax \fontsize  {14}{17pt}\selectfont  Introduction}{1}}
\@writefile{toc}{\contentsline {paragraph}{\numberline {\unhbox \voidb@x \hbox {I-}0a}Objective}{1}}
\@writefile{toc}{\contentsline {paragraph}{\numberline {\unhbox \voidb@x \hbox {I-}0b}HDL/Verilog/Behavioural Modelling}{1}}
\@writefile{toc}{\contentsline {paragraph}{\numberline {\unhbox \voidb@x \hbox {I-}0c}Outline of this report}{1}}
\@writefile{toc}{\contentsline {section}{\numberline {II}\relax \fontsize  {14}{17pt}\selectfont  Requirements for ALU}{1}}
\newlabel{s:req}{{II}{1}}
\newlabel{cref@s:req}{{[section][2][]II}{1}}
\@writefile{lof}{\contentsline {figure}{\numberline {1}{\ignorespaces Interface Diagram for ALU}}{1}}
\newlabel{f:alu}{{1}{1}}
\newlabel{cref@f:alu}{{[figure][1][]1}{1}}
\@writefile{toc}{\contentsline {section}{\numberline {III}\relax \fontsize  {14}{17pt}\selectfont  Requirements for DaVinci v1.0}{1}}
\@writefile{lof}{\contentsline {figure}{\numberline {2}{\ignorespaces The CS147DV Instruction Set}}{2}}
\newlabel{f:cs147dv}{{2}{2}}
\newlabel{cref@f:cs147dv}{{[figure][2][]2}{2}}
\@writefile{toc}{\contentsline {section}{\numberline {IV}\relax \fontsize  {14}{17pt}\selectfont  Overview of DaVinci v1.0 Model}{2}}
\@writefile{lof}{\contentsline {figure}{\numberline {3}{\ignorespaces Da Vinci Model}}{2}}
\newlabel{f:davinci-model}{{3}{2}}
\newlabel{cref@f:davinci-model}{{[figure][3][]3}{2}}
\@writefile{toc}{\contentsline {section}{\numberline {V}\relax \fontsize  {14}{17pt}\selectfont  Design/Implementation of ALU}{2}}
\newlabel{s:alu}{{V}{2}}
\newlabel{cref@s:alu}{{[section][5][]V}{2}}
\@writefile{lof}{\contentsline {figure}{\numberline {4}{\ignorespaces Overview of ProjectII}}{3}}
\newlabel{f:projII}{{4}{3}}
\newlabel{cref@f:projII}{{[figure][4][]4}{3}}
\@writefile{toc}{\contentsline {section}{\numberline {VI}\relax \fontsize  {14}{17pt}\selectfont  Design/Implementation of Register File}{3}}
\newlabel{s:rf}{{VI}{3}}
\newlabel{cref@s:rf}{{[section][6][]VI}{3}}
\@writefile{toc}{\contentsline {section}{\numberline {VII}\relax \fontsize  {14}{17pt}\selectfont  Design/Implementation of Control Unit}{3}}
\newlabel{s:cu}{{VII}{3}}
\newlabel{cref@s:cu}{{[section][7][]VII}{3}}
\@writefile{toc}{\contentsline {subsection}{\numberline {\unhbox \voidb@x \hbox {VII-A}}\relax \fontsize  {12}{14pt}\selectfont  State Machine Module}{3}}
\newlabel{code:alu}{{1}{3}}
\newlabel{cref@code:alu}{{[listing][1][]1}{3}}
\@writefile{lol}{\contentsline {lstlisting}{\numberline {1}Exceprt of ALU module pertinent to addition of ZERO flag and its functionality}{3}}
\@writefile{toc}{\contentsline {subsection}{\numberline {\unhbox \voidb@x \hbox {VII-B}}\relax \fontsize  {12}{14pt}\selectfont  Preliminary setup for the Control Unit}{3}}
\@writefile{lof}{\contentsline {figure}{\numberline {5}{\ignorespaces Instruction Fetch Process}}{3}}
\newlabel{f:if}{{5}{3}}
\newlabel{cref@f:if}{{[figure][5][]5}{3}}
\newlabel{code:rf}{{2}{4}}
\newlabel{cref@code:rf}{{[listing][2][]2}{4}}
\@writefile{lol}{\contentsline {lstlisting}{\numberline {2}Implementation of Register File Module}{4}}
\newlabel{code:sm}{{3}{4}}
\newlabel{cref@code:sm}{{[listing][3][]3}{4}}
\@writefile{lol}{\contentsline {lstlisting}{\numberline {3}Defining current and next state for the instruction cycle}{4}}
\newlabel{code:cu}{{4}{5}}
\newlabel{cref@code:cu}{{[listing][4][]4}{5}}
\@writefile{lol}{\contentsline {lstlisting}{\numberline {4}Definining registers for control unit}{5}}
\newlabel{code:if}{{5}{5}}
\newlabel{cref@code:if}{{[listing][5][]5}{5}}
\@writefile{lol}{\contentsline {lstlisting}{\numberline {5}Implementation of Control Unit (CU) at IF State}{5}}
\@writefile{toc}{\contentsline {subsection}{\numberline {\unhbox \voidb@x \hbox {VII-C}}\relax \fontsize  {12}{14pt}\selectfont  Instruction Fetch (`PROC\_FETCH)}{5}}
\@writefile{toc}{\contentsline {subsection}{\numberline {\unhbox \voidb@x \hbox {VII-D}}\relax \fontsize  {12}{14pt}\selectfont  Instruction Decode (`PROC\_DECODE)}{5}}
\@writefile{lof}{\contentsline {figure}{\numberline {6}{\ignorespaces R-type Instruction Data/Control Path: (a) general; (b) jr; and (c) shift types}}{6}}
\newlabel{f:R}{{6}{6}}
\newlabel{cref@f:R}{{[figure][6][]6}{6}}
\newlabel{code:exeR}{{6}{6}}
\newlabel{cref@code:exeR}{{[listing][6][]6}{6}}
\@writefile{lol}{\contentsline {lstlisting}{\numberline {6}Implementation of R-type Instructions at EXE Stae in CU}{6}}
\@writefile{toc}{\contentsline {subsection}{\numberline {\unhbox \voidb@x \hbox {VII-E}}\relax \fontsize  {12}{14pt}\selectfont  Instruction Execution (`PROC\_EXE) : R-type}{6}}
\@writefile{lof}{\contentsline {figure}{\numberline {7}{\ignorespaces I-type Instruction Data/Control Paths (1): (a) arithmetic; (b) branch; and (c) logic types}}{7}}
\newlabel{f:I1}{{7}{7}}
\newlabel{cref@f:I1}{{[figure][7][]7}{7}}
\@writefile{toc}{\contentsline {subsection}{\numberline {\unhbox \voidb@x \hbox {VII-F}}\relax \fontsize  {12}{14pt}\selectfont  Instruction Execution (`PROC\_EXE) : I-type}{7}}
\newlabel{code:exeI}{{7}{7}}
\newlabel{cref@code:exeI}{{[listing][7][]7}{7}}
\@writefile{lol}{\contentsline {lstlisting}{\numberline {7}Implementation of I-type Instructions at EXE State in CU}{7}}
\@writefile{toc}{\contentsline {subsection}{\numberline {\unhbox \voidb@x \hbox {VII-G}}\relax \fontsize  {12}{14pt}\selectfont  Instruction Execution (`PROC\_EXE) : J-type}{7}}
\@writefile{toc}{\contentsline {subsection}{\numberline {\unhbox \voidb@x \hbox {VII-H}}\relax \fontsize  {12}{14pt}\selectfont  Memory Access (`PROC\_MEM)}{7}}
\newlabel{code:id}{{8}{8}}
\newlabel{cref@code:id}{{[listing][8][]8}{8}}
\@writefile{lol}{\contentsline {lstlisting}{\numberline {8}Implementation of Control Unit (CU) at ID/RF State}{8}}
\@writefile{lof}{\contentsline {figure}{\numberline {8}{\ignorespaces I-type Instruction Data/Control Paths (2): (d) LUI; (e) LW and (f) SW types}}{8}}
\newlabel{f:I2}{{8}{8}}
\newlabel{cref@f:I2}{{[figure][8][]8}{8}}
\@writefile{toc}{\contentsline {subsection}{\numberline {\unhbox \voidb@x \hbox {VII-I}}\relax \fontsize  {12}{14pt}\selectfont  Write Back (`PROC\_WB)}{8}}
\citation{Harris4}
\newlabel{code:exeJ}{{9}{9}}
\newlabel{cref@code:exeJ}{{[listing][9][]9}{9}}
\@writefile{lol}{\contentsline {lstlisting}{\numberline {9}Implementation of J-type Instructions at EXE State in CU}{9}}
\@writefile{toc}{\contentsline {section}{\numberline {VIII}\relax \fontsize  {14}{17pt}\selectfont  Testbench for ALU}{9}}
\@writefile{toc}{\contentsline {subsection}{\numberline {\unhbox \voidb@x \hbox {VIII-A}}\relax \fontsize  {12}{14pt}\selectfont  Strategy \& Implementation : ALU}{9}}
\@writefile{toc}{\contentsline {subsection}{\numberline {\unhbox \voidb@x \hbox {VIII-B}}\relax \fontsize  {12}{14pt}\selectfont  Testing Results : ALU}{9}}
\@writefile{lof}{\contentsline {figure}{\numberline {9}{\ignorespaces J-Type Instruction Data/Control Paths: (a)Jal; (b) Jmp; and (c) Stack types}}{9}}
\newlabel{f:J}{{9}{9}}
\newlabel{cref@f:J}{{[figure][9][]9}{9}}
\@writefile{toc}{\contentsline {section}{\numberline {IX}\relax \fontsize  {14}{17pt}\selectfont  Testbench for Register File (RF)}{9}}
\@writefile{toc}{\contentsline {subsection}{\numberline {\unhbox \voidb@x \hbox {IX-A}}\relax \fontsize  {12}{14pt}\selectfont  Strategy \& Implementation : RF}{9}}
\newlabel{code:mem}{{10}{10}}
\newlabel{cref@code:mem}{{[listing][10][]10}{10}}
\@writefile{lol}{\contentsline {lstlisting}{\numberline {10}Implementation of CU at MEM State}{10}}
\@writefile{toc}{\contentsline {subsection}{\numberline {\unhbox \voidb@x \hbox {IX-B}}\relax \fontsize  {12}{14pt}\selectfont  Testing Results : RF}{10}}
\newlabel{code:wbR}{{11}{10}}
\newlabel{cref@code:wbR}{{[listing][11][]11}{10}}
\@writefile{lol}{\contentsline {lstlisting}{\numberline {11}Implementation of R-type Instructions at WB State in CU}{10}}
\@writefile{lof}{\contentsline {figure}{\numberline {10}{\ignorespaces Testbench Diagram for Testing for ALU under Test}}{10}}
\newlabel{f:testbench}{{10}{10}}
\newlabel{cref@f:testbench}{{[figure][10][]10}{10}}
\@writefile{toc}{\contentsline {section}{\numberline {X}\relax \fontsize  {14}{17pt}\selectfont  Testbench for Memory (MEM)}{10}}
\@writefile{toc}{\contentsline {subsection}{\numberline {\unhbox \voidb@x \hbox {X-A}}\relax \fontsize  {12}{14pt}\selectfont  Strategy \& Implementation : MEM}{10}}
\newlabel{code:wbI}{{12}{11}}
\newlabel{cref@code:wbI}{{[listing][12][]12}{11}}
\@writefile{lol}{\contentsline {lstlisting}{\numberline {12}Implementation of I-type Instructions at WB State in CU}{11}}
\@writefile{toc}{\contentsline {subsection}{\numberline {\unhbox \voidb@x \hbox {X-B}}\relax \fontsize  {12}{14pt}\selectfont  Testing Results : MEM}{11}}
\@writefile{toc}{\contentsline {paragraph}{\numberline {\unhbox \voidb@x \hbox {X-B}0a}mem\_dump\_01.dat}{11}}
\@writefile{toc}{\contentsline {paragraph}{\numberline {\unhbox \voidb@x \hbox {X-B}0b}mem\_dump\_02.dat}{11}}
\newlabel{code:wbJ}{{13}{11}}
\newlabel{cref@code:wbJ}{{[listing][13][]13}{11}}
\@writefile{lol}{\contentsline {lstlisting}{\numberline {13}Implementation of J-type Instructions at WB State in CU}{11}}
\@writefile{lof}{\contentsline {figure}{\numberline {11}{\ignorespaces Result of ALU Testbench in transcript and in waveform}}{11}}
\newlabel{f:testbench-alu}{{11}{11}}
\newlabel{cref@f:testbench-alu}{{[figure][11][]11}{11}}
\newlabel{code:rf_tb}{{14}{12}}
\newlabel{cref@code:rf_tb}{{[listing][14][]14}{12}}
\@writefile{lol}{\contentsline {lstlisting}{\numberline {14}Exceprt of Implementated Testbench for RF}{12}}
\@writefile{toc}{\contentsline {section}{\numberline {XI}\relax \fontsize  {14}{17pt}\selectfont  Testbench for DaVinci v1.0}{12}}
\@writefile{toc}{\contentsline {subsection}{\numberline {\unhbox \voidb@x \hbox {XI-A}}\relax \fontsize  {12}{14pt}\selectfont  Testing Procedure \& Strategy}{12}}
\@writefile{lof}{\contentsline {figure}{\numberline {12}{\ignorespaces Result of Register File Testbench in transcript and in waveform}}{12}}
\newlabel{f:testbench-rf}{{12}{12}}
\newlabel{cref@f:testbench-rf}{{[figure][12][]12}{12}}
\@writefile{toc}{\contentsline {subsection}{\numberline {\unhbox \voidb@x \hbox {XI-B}}\relax \fontsize  {12}{14pt}\selectfont  Testing Results : DaVinci}{12}}
\@writefile{toc}{\contentsline {subsection}{\numberline {\unhbox \voidb@x \hbox {XI-C}}\relax \fontsize  {12}{14pt}\selectfont  Benchmarking with Fibonacci Sequence using \texttt  {sw}}{12}}
\@writefile{toc}{\contentsline {paragraph}{\numberline {\unhbox \voidb@x \hbox {XI-C}0a}Loading Memory Data}{12}}
\@writefile{toc}{\contentsline {paragraph}{\numberline {\unhbox \voidb@x \hbox {XI-C}0b}Result of the Memory Dump Output}{12}}
\newlabel{code:mem_tb}{{15}{13}}
\newlabel{cref@code:mem_tb}{{[listing][15][]15}{13}}
\@writefile{lol}{\contentsline {lstlisting}{\numberline {15}Exceprt of Testbench for Memory}{13}}
\newlabel{code:fibo}{{16}{13}}
\newlabel{cref@code:fibo}{{[listing][16][]16}{13}}
\@writefile{lol}{\contentsline {lstlisting}{\numberline {16}Memory Data File for Fibonacci Sequence}{13}}
\@writefile{lof}{\contentsline {figure}{\numberline {13}{\ignorespaces Result of Memory Testbench in transcript and in waveform as well as in memory dump files}}{13}}
\newlabel{f:testbench-mem}{{13}{13}}
\newlabel{cref@f:testbench-mem}{{[figure][13][]13}{13}}
\@writefile{lof}{\contentsline {figure}{\numberline {14}{\ignorespaces Result of Da Vinci System Testbench Compilation \& Library Loading}}{14}}
\newlabel{f:testbench-dv0}{{14}{14}}
\newlabel{cref@f:testbench-dv0}{{[figure][14][]14}{14}}
\@writefile{toc}{\contentsline {subsection}{\numberline {\unhbox \voidb@x \hbox {XI-D}}\relax \fontsize  {12}{14pt}\selectfont  Benchmarking with Reverse Fibonacci Sequence using \texttt  {push}}{14}}
\@writefile{toc}{\contentsline {paragraph}{\numberline {\unhbox \voidb@x \hbox {XI-D}0a}Loading Memory Data}{14}}
\@writefile{lof}{\contentsline {figure}{\numberline {15}{\ignorespaces Schematics of the DaVinci Testbench}}{14}}
\newlabel{f:davinci-tb}{{15}{14}}
\newlabel{cref@f:davinci-tb}{{[figure][15][]15}{14}}
\@writefile{lof}{\contentsline {figure}{\numberline {16}{\ignorespaces Result of DaVinci System Testbench for Fibonacci Sequence Case}}{14}}
\newlabel{f:testbench-dv1}{{16}{14}}
\newlabel{cref@f:testbench-dv1}{{[figure][16][]16}{14}}
\newlabel{code:Rfibo}{{17}{15}}
\newlabel{cref@code:Rfibo}{{[listing][17][]17}{15}}
\@writefile{lol}{\contentsline {lstlisting}{\numberline {17}Memory Data File for Reverse Fibonacci}{15}}
\@writefile{toc}{\contentsline {paragraph}{\numberline {\unhbox \voidb@x \hbox {XI-D}0b}Result of the Memory Dump Output}{15}}
\@writefile{lof}{\contentsline {figure}{\numberline {17}{\ignorespaces Result of DaVinci System Testbench for Reverse Fibonacci Case}}{15}}
\newlabel{f:testbench-dv2}{{17}{15}}
\newlabel{cref@f:testbench-dv2}{{[figure][17][]17}{15}}
\@writefile{toc}{\contentsline {subsection}{\numberline {\unhbox \voidb@x \hbox {XI-E}}\relax \fontsize  {12}{14pt}\selectfont  Benchmarking with Iterative Factorial using \texttt  {push}}{15}}
\@writefile{toc}{\contentsline {paragraph}{\numberline {\unhbox \voidb@x \hbox {XI-E}0a}Creating Memory Data from Assembly Code to Machine Code}{15}}
\newlabel{code:mips}{{18}{15}}
\newlabel{cref@code:mips}{{[listing][18][]18}{15}}
\@writefile{lol}{\contentsline {lstlisting}{\numberline {18}MIPS Assembly Code for the Iternative Factorial}{15}}
\newlabel{code:fact}{{19}{15}}
\newlabel{cref@code:fact}{{[listing][19][]19}{15}}
\@writefile{lol}{\contentsline {lstlisting}{\numberline {19}Memory Data File for Iternative Factorial}{15}}
\@writefile{toc}{\contentsline {paragraph}{\numberline {\unhbox \voidb@x \hbox {XI-E}0b}Loading Memory Data}{15}}
\bibcite{Lect1}{1}
\bibcite{Lect11}{2}
\bibcite{Lab3-4}{3}
\bibcite{Lab5}{4}
\bibcite{Lab6}{5}
\bibcite{Lab7-10}{6}
\bibcite{Harris5}{7}
\bibcite{Harris4}{8}
\@writefile{toc}{\contentsline {paragraph}{\numberline {\unhbox \voidb@x \hbox {XI-E}0c}Result of the Memory Dump Output}{16}}
\@writefile{toc}{\contentsline {section}{\numberline {XII}\relax \fontsize  {14}{17pt}\selectfont  Conclusion}{16}}
\newlabel{s:conclusion}{{XII}{16}}
\newlabel{cref@s:conclusion}{{[section][12][]XII}{16}}
\@writefile{toc}{\contentsline {section}{\relax \fontsize  {14}{17pt}\selectfont  References}{16}}
\@writefile{lof}{\contentsline {figure}{\numberline {18}{\ignorespaces Result of DaVinci System Testbench for Iterative Factorial Case}}{16}}
\newlabel{f:testbench-dv2}{{18}{16}}
\newlabel{cref@f:testbench-dv2}{{[figure][18][]18}{16}}
