\relax 
\@writefile{toc}{\contentsline {section}{\numberline {{\relax \fontsize  {12}{14pt}\selectfont  {\S  1}}}\textbf  {INTRODUCTION}}{1}}
\@writefile{toc}{\contentsline {section}{\numberline {{\relax \fontsize  {12}{14pt}\selectfont  {\S  2}}}\textbf  {REQUIREMENTS FOR PROCESSOR IMPLEMENTATION (PROC\_CS147\_SEC05)}}{1}}
\newlabel{s:req}{{{\relax \fontsize  {12}{14pt}\selectfont  {\S  2}}}{1}}
\newlabel{cref@s:req}{{[section][2][]{\relax \fontsize  {12}{14pt}\selectfont  {\S  2}}}{1}}
\@writefile{toc}{\contentsline {subsection}{\numberline {\unhbox \voidb@x \hbox {{\relax \fontsize  {12}{14pt}\selectfont  {\S  2}}.a}}DATA\_PATH in mixed level}{1}}
\@writefile{lof}{\contentsline {figure}{\numberline {1}{\ignorespaces Schematic Diagram of Final DaVinci v1.0m Computer System}}{1}}
\newlabel{f:davinci}{{1}{1}}
\newlabel{cref@f:davinci}{{[figure][1][]1}{1}}
\@writefile{lof}{\contentsline {figure}{\numberline {2}{\ignorespaces Schematic Diagram of Processor (a) and Memory-wrapper (b)}}{1}}
\newlabel{f:davinci-inside}{{2}{1}}
\newlabel{cref@f:davinci-inside}{{[figure][2][]2}{1}}
\citation{Lab14,Lect1,Lect11}
\@writefile{toc}{\contentsline {subsection}{\numberline {\unhbox \voidb@x \hbox {{\relax \fontsize  {12}{14pt}\selectfont  {\S  2}}.b}}CONTROL\_UNIT in behavioral level}{2}}
\@writefile{toc}{\contentsline {section}{\numberline {{\relax \fontsize  {12}{14pt}\selectfont  {\S  3}}}\textbf  {REQUIREMENTS FOR TESTBENCH (DA\_VINCI\_TB)}}{2}}
\newlabel{s:davinci-req}{{{\relax \fontsize  {12}{14pt}\selectfont  {\S  3}}}{2}}
\newlabel{cref@s:davinci-req}{{[section][3][]{\relax \fontsize  {12}{14pt}\selectfont  {\S  3}}}{2}}
\@writefile{toc}{\contentsline {section}{\numberline {{\relax \fontsize  {12}{14pt}\selectfont  {\S  4}}}\textbf  {DESIGN \& IMPLEMENTATION OF ALU AT GATE LEVEL MODELING}}{2}}
\newlabel{s:alu}{{{\relax \fontsize  {12}{14pt}\selectfont  {\S  4}}}{2}}
\newlabel{cref@s:alu}{{[section][4][]{\relax \fontsize  {12}{14pt}\selectfont  {\S  4}}}{2}}
\@writefile{toc}{\contentsline {subsection}{\numberline {\unhbox \voidb@x \hbox {{\relax \fontsize  {12}{14pt}\selectfont  {\S  4}}.a}}\textbf  {32-BIT ALU}\cite  {Lab14,Lect1,Lect11}}{2}}
\@writefile{toc}{\contentsline {subsubsection}{\numberline {\unhbox \voidb@x \hbox {{\relax \fontsize  {12}{14pt}\selectfont  {\S  4}}.a}-1}Design/Implementation}{2}}
\newlabel{code:alu}{{1}{2}}
\newlabel{cref@code:alu}{{[listing][1][]1}{2}}
\@writefile{lol}{\contentsline {lstlisting}{\numberline {1}Sequential ALU at Gate Level Model}{2}}
\citation{Lab11}
\citation{Lab11}
\citation{Lect9}
\citation{Lab11}
\citation{Lab11}
\@writefile{lof}{\contentsline {figure}{\numberline {3}{\ignorespaces Opcode of instructions (a); Schematic Diagram of ALU at Gate Level Model (b)}}{3}}
\newlabel{f:alu}{{3}{3}}
\newlabel{cref@f:alu}{{[figure][3][]3}{3}}
\@writefile{toc}{\contentsline {subsubsection}{\numberline {\unhbox \voidb@x \hbox {{\relax \fontsize  {12}{14pt}\selectfont  {\S  4}}.a}-2}Testbench}{3}}
\@writefile{toc}{\contentsline {subsection}{\numberline {\unhbox \voidb@x \hbox {{\relax \fontsize  {12}{14pt}\selectfont  {\S  4}}.b}}Half-Adder \cite  {Lab11}}{3}}
\@writefile{toc}{\contentsline {subsubsection}{\numberline {\unhbox \voidb@x \hbox {{\relax \fontsize  {12}{14pt}\selectfont  {\S  4}}.b}-1}Design/Implementation}{3}}
\@writefile{toc}{\contentsline {subsubsection}{\numberline {\unhbox \voidb@x \hbox {{\relax \fontsize  {12}{14pt}\selectfont  {\S  4}}.b}-2}Testbench}{3}}
\@writefile{toc}{\contentsline {subsection}{\numberline {\unhbox \voidb@x \hbox {{\relax \fontsize  {12}{14pt}\selectfont  {\S  4}}.c}}Full-Adder \cite  {Lab11}}{3}}
\@writefile{toc}{\contentsline {subsubsection}{\numberline {\unhbox \voidb@x \hbox {{\relax \fontsize  {12}{14pt}\selectfont  {\S  4}}.c}-1}Design/Implementation}{3}}
\@writefile{lof}{\contentsline {figure}{\numberline {4}{\ignorespaces ALU Testbench Results in Text Output (a); Waveform (b)}}{3}}
\newlabel{f:alu-tb}{{4}{3}}
\newlabel{cref@f:alu-tb}{{[figure][4][]4}{3}}
\@writefile{lof}{\contentsline {figure}{\numberline {5}{\ignorespaces Half-Adder as a Starter Example for Project-III}}{3}}
\newlabel{f:halfAdder}{{5}{3}}
\newlabel{cref@f:halfAdder}{{[figure][5][]5}{3}}
\@writefile{toc}{\contentsline {subsubsection}{\numberline {\unhbox \voidb@x \hbox {{\relax \fontsize  {12}{14pt}\selectfont  {\S  4}}.c}-2}Testbench}{3}}
\@writefile{toc}{\contentsline {subsection}{\numberline {\unhbox \voidb@x \hbox {{\relax \fontsize  {12}{14pt}\selectfont  {\S  4}}.d}}32-bit Binary Ripple Carry Adder/Subtracter \cite  {Lab11}}{3}}
\newlabel{s:rc}{{\unhbox \voidb@x \hbox {{\relax \fontsize  {12}{14pt}\selectfont  {\S  4}}.d}}{3}}
\newlabel{cref@s:rc}{{[subsection][4][4]\unhbox \voidb@x \hbox {{\relax \fontsize  {12}{14pt}\selectfont  {\S  4}}.d}}{3}}
\@writefile{toc}{\contentsline {subsubsection}{\numberline {\unhbox \voidb@x \hbox {{\relax \fontsize  {12}{14pt}\selectfont  {\S  4}}.d}-1}Design/Implementation}{3}}
\citation{Lab12}
\citation{Lab12}
\@writefile{lof}{\contentsline {figure}{\numberline {6}{\ignorespaces Truth Table of Half-Adder (a) and Waveform Result of Testbench (b)}}{4}}
\newlabel{f:halfAdderWave}{{6}{4}}
\newlabel{cref@f:halfAdderWave}{{[figure][6][]6}{4}}
\@writefile{lof}{\contentsline {figure}{\numberline {7}{\ignorespaces Schematic Diagram of Full-Adder}}{4}}
\newlabel{f:fullAdder}{{7}{4}}
\newlabel{cref@f:fullAdder}{{[figure][7][]7}{4}}
\@writefile{toc}{\contentsline {subsubsection}{\numberline {\unhbox \voidb@x \hbox {{\relax \fontsize  {12}{14pt}\selectfont  {\S  4}}.d}-2}Testbench}{4}}
\@writefile{toc}{\contentsline {subsection}{\numberline {\unhbox \voidb@x \hbox {{\relax \fontsize  {12}{14pt}\selectfont  {\S  4}}.e}}1-bit 2x1 Multiplexer \cite  {Lab12}}{4}}
\@writefile{toc}{\contentsline {subsubsection}{\numberline {\unhbox \voidb@x \hbox {{\relax \fontsize  {12}{14pt}\selectfont  {\S  4}}.e}-1}Design/Implementation}{4}}
\newlabel{code:fa}{{2}{4}}
\newlabel{cref@code:fa}{{[listing][2][]2}{4}}
\@writefile{lol}{\contentsline {lstlisting}{\numberline {2}Implementation of Full-Adder}{4}}
\newlabel{code:faTB}{{3}{4}}
\newlabel{cref@code:faTB}{{[listing][3][]3}{4}}
\@writefile{lol}{\contentsline {lstlisting}{\numberline {3}Implementation of Full-Adder Testbench}{4}}
\@writefile{toc}{\contentsline {subsubsection}{\numberline {\unhbox \voidb@x \hbox {{\relax \fontsize  {12}{14pt}\selectfont  {\S  4}}.e}-2}Testbench}{4}}
\@writefile{toc}{\contentsline {subsection}{\numberline {\unhbox \voidb@x \hbox {{\relax \fontsize  {12}{14pt}\selectfont  {\S  4}}.f}}32-bit 2x1 Multiplexer\cite  {Lab12}}{4}}
\@writefile{toc}{\contentsline {subsubsection}{\numberline {\unhbox \voidb@x \hbox {{\relax \fontsize  {12}{14pt}\selectfont  {\S  4}}.f}-1}Design/Implementation}{4}}
\citation{Lab12}
\@writefile{lof}{\contentsline {figure}{\numberline {8}{\ignorespaces Truth Table of Full-Adder (a) and Waveform Result of Testbench (b)}}{5}}
\newlabel{f:halfAdderTbWave}{{8}{5}}
\newlabel{cref@f:halfAdderTbWave}{{[figure][8][]8}{5}}
\@writefile{lof}{\contentsline {figure}{\numberline {9}{\ignorespaces Schematic Diagram of Combined 32-bit Adder/Subtracter based on the 1-bit Full-Adder}}{5}}
\newlabel{f:rcAddSub32}{{9}{5}}
\newlabel{cref@f:rcAddSub32}{{[figure][9][]9}{5}}
\@writefile{toc}{\contentsline {subsubsection}{\numberline {\unhbox \voidb@x \hbox {{\relax \fontsize  {12}{14pt}\selectfont  {\S  4}}.f}-2}Testbench}{5}}
\@writefile{toc}{\contentsline {subsection}{\numberline {\unhbox \voidb@x \hbox {{\relax \fontsize  {12}{14pt}\selectfont  {\S  4}}.g}}32-bit Unsigned Multiplier \cite  {Lab12}}{5}}
\newlabel{s:multU}{{\unhbox \voidb@x \hbox {{\relax \fontsize  {12}{14pt}\selectfont  {\S  4}}.g}}{5}}
\newlabel{cref@s:multU}{{[subsection][7][4]\unhbox \voidb@x \hbox {{\relax \fontsize  {12}{14pt}\selectfont  {\S  4}}.g}}{5}}
\@writefile{toc}{\contentsline {subsubsection}{\numberline {\unhbox \voidb@x \hbox {{\relax \fontsize  {12}{14pt}\selectfont  {\S  4}}.g}-1}Design/Implementation}{5}}
\newlabel{code:rc32}{{4}{5}}
\newlabel{cref@code:rc32}{{[listing][4][]4}{5}}
\@writefile{lol}{\contentsline {lstlisting}{\numberline {4}Implementation of the 32-bit Combined Adder/Subtractoron}{5}}
\@writefile{lof}{\contentsline {figure}{\numberline {10}{\ignorespaces Waveform Result of 32-bit Binary Adder/Subtracter Testbench}}{5}}
\newlabel{f:rc32-tb-wave}{{10}{5}}
\newlabel{cref@f:rc32-tb-wave}{{[figure][10][]10}{5}}
\@writefile{lof}{\contentsline {figure}{\numberline {11}{\ignorespaces Schematic Diagram of 1-bit 2x1 Multiplexer}}{5}}
\newlabel{f:mux2x1}{{11}{5}}
\newlabel{cref@f:mux2x1}{{[figure][11][]11}{5}}
\citation{Lab12}
\newlabel{code:rc32-tb}{{5}{6}}
\newlabel{cref@code:rc32-tb}{{[listing][5][]5}{6}}
\@writefile{lol}{\contentsline {lstlisting}{\numberline {5}Implementation of Full-Adder Testbench}{6}}
\newlabel{code:mux2x1}{{6}{6}}
\newlabel{cref@code:mux2x1}{{[listing][6][]6}{6}}
\@writefile{lol}{\contentsline {lstlisting}{\numberline {6}Implementation of the 1-bit 2x1 Multiplexer}{6}}
\newlabel{code:mux2x1-tb}{{7}{6}}
\newlabel{cref@code:mux2x1-tb}{{[listing][7][]7}{6}}
\@writefile{lol}{\contentsline {lstlisting}{\numberline {7}Implementation of 1-bit 2x1 Mux Testbench}{6}}
\newlabel{code:mux32-2x1}{{8}{6}}
\newlabel{cref@code:mux32-2x1}{{[listing][8][]8}{6}}
\@writefile{lol}{\contentsline {lstlisting}{\numberline {8}Implementation of the 32-bit 2x1 Multiplexer}{6}}
\@writefile{toc}{\contentsline {subsubsection}{\numberline {\unhbox \voidb@x \hbox {{\relax \fontsize  {12}{14pt}\selectfont  {\S  4}}.g}-2}Testbench}{6}}
\citation{Lab12}
\@writefile{lof}{\contentsline {figure}{\numberline {12}{\ignorespaces Truth Table of 1-bit 2x1 Mux (a) and Waveform Result of Testbench (b)}}{7}}
\newlabel{f:mux2x1-tb-wave}{{12}{7}}
\newlabel{cref@f:mux2x1-tb-wave}{{[figure][12][]12}{7}}
\@writefile{lof}{\contentsline {figure}{\numberline {13}{\ignorespaces Schematic Diagram of 32-bit 2x1 Multiplexer}}{7}}
\newlabel{f:mux32}{{13}{7}}
\newlabel{cref@f:mux32}{{[figure][13][]13}{7}}
\@writefile{toc}{\contentsline {subsection}{\numberline {\unhbox \voidb@x \hbox {{\relax \fontsize  {12}{14pt}\selectfont  {\S  4}}.h}}32-bit and 64-bit 2's Complement \cite  {Lab12}}{7}}
\@writefile{toc}{\contentsline {subsubsection}{\numberline {\unhbox \voidb@x \hbox {{\relax \fontsize  {12}{14pt}\selectfont  {\S  4}}.h}-1}Design/Implementation}{7}}
\@writefile{toc}{\contentsline {subsubsection}{\numberline {\unhbox \voidb@x \hbox {{\relax \fontsize  {12}{14pt}\selectfont  {\S  4}}.h}-2}Testbench}{7}}
\newlabel{code:mux32-2x1-tb}{{9}{7}}
\newlabel{cref@code:mux32-2x1-tb}{{[listing][9][]9}{7}}
\@writefile{lol}{\contentsline {lstlisting}{\numberline {9}Implementation of 32-bit 2x1 Mux Testbench}{7}}
\@writefile{lof}{\contentsline {figure}{\numberline {14}{\ignorespaces Waveform Result of 32-bit 2x1 Mux Testbench}}{7}}
\newlabel{f:mux32-2x1-tb-wave}{{14}{7}}
\newlabel{cref@f:mux32-2x1-tb-wave}{{[figure][14][]14}{7}}
\@writefile{toc}{\contentsline {subsection}{\numberline {\unhbox \voidb@x \hbox {{\relax \fontsize  {12}{14pt}\selectfont  {\S  4}}.i}}32-bit Buffer}{7}}
\newlabel{s:buf32}{{\unhbox \voidb@x \hbox {{\relax \fontsize  {12}{14pt}\selectfont  {\S  4}}.i}}{7}}
\newlabel{cref@s:buf32}{{[subsection][9][4]\unhbox \voidb@x \hbox {{\relax \fontsize  {12}{14pt}\selectfont  {\S  4}}.i}}{7}}
\@writefile{toc}{\contentsline {subsubsection}{\numberline {\unhbox \voidb@x \hbox {{\relax \fontsize  {12}{14pt}\selectfont  {\S  4}}.i}-1}Design/Implementation}{7}}
\@writefile{toc}{\contentsline {subsubsection}{\numberline {\unhbox \voidb@x \hbox {{\relax \fontsize  {12}{14pt}\selectfont  {\S  4}}.i}-2}Testbench}{7}}
\@writefile{toc}{\contentsline {subsection}{\numberline {\unhbox \voidb@x \hbox {{\relax \fontsize  {12}{14pt}\selectfont  {\S  4}}.j}}32-bit Signed Multiplier \cite  {Lab12}}{7}}
\@writefile{toc}{\contentsline {subsubsection}{\numberline {\unhbox \voidb@x \hbox {{\relax \fontsize  {12}{14pt}\selectfont  {\S  4}}.j}-1}Design/Implementation}{7}}
\newlabel{code:multU}{{10}{8}}
\newlabel{cref@code:multU}{{[listing][10][]10}{8}}
\@writefile{lol}{\contentsline {lstlisting}{\numberline {10}Implementation of the 32-bit Unsigned Multiplier}{8}}
\@writefile{lof}{\contentsline {figure}{\numberline {15}{\ignorespaces Schematic Diagram of Sequential Multiplier}}{8}}
\newlabel{f:32multU}{{15}{8}}
\newlabel{cref@f:32multU}{{[figure][15][]15}{8}}
\newlabel{code:twos}{{11}{8}}
\newlabel{cref@code:twos}{{[listing][11][]11}{8}}
\@writefile{lol}{\contentsline {lstlisting}{\numberline {11}Implementation of the 2's Complement}{8}}
\newlabel{code:buf32}{{12}{8}}
\newlabel{cref@code:buf32}{{[listing][12][]12}{8}}
\@writefile{lol}{\contentsline {lstlisting}{\numberline {12}Implementation of the 32-bit Buffer}{8}}
\citation{Lab13}
\@writefile{lof}{\contentsline {figure}{\numberline {16}{\ignorespaces Waveform Result of 32-bit Unsigned Multiplier Testbench}}{9}}
\newlabel{f:32multU-tb-wave}{{16}{9}}
\newlabel{cref@f:32multU-tb-wave}{{[figure][16][]16}{9}}
\@writefile{lof}{\contentsline {figure}{\numberline {17}{\ignorespaces Schematic Diagram of 2's Complement}}{9}}
\newlabel{f:2scomple}{{17}{9}}
\newlabel{cref@f:2scomple}{{[figure][17][]17}{9}}
\@writefile{lof}{\contentsline {figure}{\numberline {18}{\ignorespaces Waveform Result of 32-bit 2's Complement Testbench}}{9}}
\newlabel{f:2scomple-tb-wave}{{18}{9}}
\newlabel{cref@f:2scomple-tb-wave}{{[figure][18][]18}{9}}
\@writefile{toc}{\contentsline {subsubsection}{\numberline {\unhbox \voidb@x \hbox {{\relax \fontsize  {12}{14pt}\selectfont  {\S  4}}.j}-2}Testbench}{9}}
\@writefile{lof}{\contentsline {figure}{\numberline {19}{\ignorespaces Waveform Result of 32-bit Buffer Testbench}}{9}}
\newlabel{f:buf32-tb-wave}{{19}{9}}
\newlabel{cref@f:buf32-tb-wave}{{[figure][19][]19}{9}}
\@writefile{lof}{\contentsline {figure}{\numberline {20}{\ignorespaces Schematic Diagram of 32-bit Signed Multiplier}}{9}}
\newlabel{f:32mult}{{20}{9}}
\newlabel{cref@f:32mult}{{[figure][20][]20}{9}}
\@writefile{lof}{\contentsline {figure}{\numberline {21}{\ignorespaces Waveform Result of 32-bit Signed Multiplier Testbench}}{9}}
\newlabel{f:32mult-tb-wave}{{21}{9}}
\newlabel{cref@f:32mult-tb-wave}{{[figure][21][]21}{9}}
\@writefile{toc}{\contentsline {subsection}{\numberline {\unhbox \voidb@x \hbox {{\relax \fontsize  {12}{14pt}\selectfont  {\S  4}}.k}}4-bit Barrel Shifter \cite  {Lab13}}{9}}
\@writefile{toc}{\contentsline {subsubsection}{\numberline {\unhbox \voidb@x \hbox {{\relax \fontsize  {12}{14pt}\selectfont  {\S  4}}.k}-1}Design/Implementation}{9}}
\citation{Lab13}
\newlabel{code:mult}{{13}{10}}
\newlabel{cref@code:mult}{{[listing][13][]13}{10}}
\@writefile{lol}{\contentsline {lstlisting}{\numberline {13}Implementation of the 32-bit Signed Multiplier}{10}}
\@writefile{toc}{\contentsline {subsubsection}{\numberline {\unhbox \voidb@x \hbox {{\relax \fontsize  {12}{14pt}\selectfont  {\S  4}}.k}-2}Testbench}{10}}
\@writefile{toc}{\contentsline {subsection}{\numberline {\unhbox \voidb@x \hbox {{\relax \fontsize  {12}{14pt}\selectfont  {\S  4}}.l}}32-bit Barrel Shifter with 32-bit Input\cite  {Lab13}}{10}}
\@writefile{toc}{\contentsline {subsubsection}{\numberline {\unhbox \voidb@x \hbox {{\relax \fontsize  {12}{14pt}\selectfont  {\S  4}}.l}-1}Design/Implementation}{10}}
\@writefile{lof}{\contentsline {figure}{\numberline {22}{\ignorespaces Schematic Diagram of 4-bit Shifter}}{10}}
\newlabel{f:shifter4}{{22}{10}}
\newlabel{cref@f:shifter4}{{[figure][22][]22}{10}}
\@writefile{lof}{\contentsline {figure}{\numberline {23}{\ignorespaces Waveform Result of 4-bit LEFT Shifter Testbench}}{10}}
\newlabel{f:shifter4-tb}{{23}{10}}
\newlabel{cref@f:shifter4-tb}{{[figure][23][]23}{10}}
\@writefile{lof}{\contentsline {figure}{\numberline {24}{\ignorespaces Schematic Diagram of 32-bit Barrel Shifter with LnR Signal and 32-bit Selection Input}}{10}}
\newlabel{f:shift32-5bitS}{{24}{10}}
\newlabel{cref@f:shift32-5bitS}{{[figure][24][]24}{10}}
\@writefile{toc}{\contentsline {subsubsection}{\numberline {\unhbox \voidb@x \hbox {{\relax \fontsize  {12}{14pt}\selectfont  {\S  4}}.l}-2}Testbench}{10}}
\citation{Lab15}
\citation{Lab15}
\newlabel{code:shifter32-L}{{14}{11}}
\newlabel{cref@code:shifter32-L}{{[listing][14][]14}{11}}
\@writefile{lol}{\contentsline {lstlisting}{\numberline {14}Implementation of the 32-bit LEFT Barrel Shifter}{11}}
\@writefile{lof}{\contentsline {figure}{\numberline {25}{\ignorespaces Waveform Result of 32-bit Barrel Shifter}}{11}}
\newlabel{f:32shift-tb}{{25}{11}}
\newlabel{cref@f:32shift-tb}{{[figure][25][]25}{11}}
\@writefile{toc}{\contentsline {section}{\numberline {{\relax \fontsize  {12}{14pt}\selectfont  {\S  5}}}\textbf  {DESIGN \& IMPLEMENTATION OF REGISTER FILE (DATA STORAGE) AT GATE LEVEL MODEL}}{11}}
\newlabel{s:rf}{{{\relax \fontsize  {12}{14pt}\selectfont  {\S  5}}}{11}}
\newlabel{cref@s:rf}{{[section][5][]{\relax \fontsize  {12}{14pt}\selectfont  {\S  5}}}{11}}
\newlabel{code:shifter32-R}{{15}{11}}
\newlabel{cref@code:shifter32-R}{{[listing][15][]15}{11}}
\@writefile{lol}{\contentsline {lstlisting}{\numberline {15}Implementation of the 32-bit RIGHT Barrel Shifter}{11}}
\@writefile{toc}{\contentsline {subsection}{\numberline {\unhbox \voidb@x \hbox {{\relax \fontsize  {12}{14pt}\selectfont  {\S  5}}.a}}1-bit SR-Latch \cite  {Lab15}}{11}}
\@writefile{toc}{\contentsline {subsubsection}{\numberline {\unhbox \voidb@x \hbox {{\relax \fontsize  {12}{14pt}\selectfont  {\S  5}}.a}-1}Design/Implementation}{11}}
\@writefile{toc}{\contentsline {subsubsection}{\numberline {\unhbox \voidb@x \hbox {{\relax \fontsize  {12}{14pt}\selectfont  {\S  5}}.a}-2}Testbench}{11}}
\citation{Lab15}
\newlabel{code:shifter32}{{16}{12}}
\newlabel{cref@code:shifter32}{{[listing][16][]16}{12}}
\@writefile{lol}{\contentsline {lstlisting}{\numberline {16}Implementation of the 32-bit Barrel Shifter}{12}}
\@writefile{lof}{\contentsline {figure}{\numberline {26}{\ignorespaces Schematic Diagram of SR-Latch}}{12}}
\newlabel{f:srLatch}{{26}{12}}
\newlabel{cref@f:srLatch}{{[figure][26][]26}{12}}
\newlabel{code:srLatch}{{17}{12}}
\newlabel{cref@code:srLatch}{{[listing][17][]17}{12}}
\@writefile{lol}{\contentsline {lstlisting}{\numberline {17}SR Latch At Gate Level}{12}}
\@writefile{lof}{\contentsline {figure}{\numberline {27}{\ignorespaces Waveform Result of SR-Latch Testbench}}{12}}
\newlabel{f:srlatch-tb-wave}{{27}{12}}
\newlabel{cref@f:srlatch-tb-wave}{{[figure][27][]27}{12}}
\@writefile{toc}{\contentsline {subsection}{\numberline {\unhbox \voidb@x \hbox {{\relax \fontsize  {12}{14pt}\selectfont  {\S  5}}.b}}1-bit D-Latch \cite  {Lab15}}{12}}
\@writefile{toc}{\contentsline {subsubsection}{\numberline {\unhbox \voidb@x \hbox {{\relax \fontsize  {12}{14pt}\selectfont  {\S  5}}.b}-1}Design/Implementation}{12}}
\@writefile{toc}{\contentsline {subsubsection}{\numberline {\unhbox \voidb@x \hbox {{\relax \fontsize  {12}{14pt}\selectfont  {\S  5}}.b}-2}Testbench}{12}}
\citation{Lab15}
\@writefile{lof}{\contentsline {figure}{\numberline {28}{\ignorespaces Schematic Diagram of D-Latch}}{13}}
\newlabel{f:dLatch}{{28}{13}}
\newlabel{cref@f:dLatch}{{[figure][28][]28}{13}}
\newlabel{code:dLatch}{{18}{13}}
\newlabel{cref@code:dLatch}{{[listing][18][]18}{13}}
\@writefile{lol}{\contentsline {lstlisting}{\numberline {18}D Latch At Gate Level}{13}}
\@writefile{lof}{\contentsline {figure}{\numberline {29}{\ignorespaces Waveform Result of D-Latch Testbench}}{13}}
\newlabel{f:dlatch-tb-wave}{{29}{13}}
\newlabel{cref@f:dlatch-tb-wave}{{[figure][29][]29}{13}}
\@writefile{toc}{\contentsline {subsection}{\numberline {\unhbox \voidb@x \hbox {{\relax \fontsize  {12}{14pt}\selectfont  {\S  5}}.c}}1-bit D-Flip-Flop \cite  {Lab15}}{13}}
\@writefile{toc}{\contentsline {subsubsection}{\numberline {\unhbox \voidb@x \hbox {{\relax \fontsize  {12}{14pt}\selectfont  {\S  5}}.c}-1}Design/Implementation}{13}}
\@writefile{toc}{\contentsline {subsubsection}{\numberline {\unhbox \voidb@x \hbox {{\relax \fontsize  {12}{14pt}\selectfont  {\S  5}}.c}-2}Testbench}{13}}
\@writefile{lof}{\contentsline {figure}{\numberline {30}{\ignorespaces Positive Edge Triggered D-Flip-flop (a); Negative Edge Triggered D-Flip-flop (b); D-Flip-flop with Preset and Reset Signals (c)}}{13}}
\newlabel{f:dff}{{30}{13}}
\newlabel{cref@f:dff}{{[figure][30][]30}{13}}
\@writefile{toc}{\contentsline {subsection}{\numberline {\unhbox \voidb@x \hbox {{\relax \fontsize  {12}{14pt}\selectfont  {\S  5}}.d}}1-bit Register \cite  {Lab15}}{13}}
\@writefile{toc}{\contentsline {subsubsection}{\numberline {\unhbox \voidb@x \hbox {{\relax \fontsize  {12}{14pt}\selectfont  {\S  5}}.d}-1}Design/Implementation}{13}}
\@writefile{toc}{\contentsline {subsubsection}{\numberline {\unhbox \voidb@x \hbox {{\relax \fontsize  {12}{14pt}\selectfont  {\S  5}}.d}-2}Testbench}{13}}
\citation{Lab15}
\citation{Lab16}
\newlabel{code:dff}{{19}{14}}
\newlabel{cref@code:dff}{{[listing][19][]19}{14}}
\@writefile{lol}{\contentsline {lstlisting}{\numberline {19}+ve Triggerd, -ve Triggerd D Flip-fop At Gate Level}{14}}
\@writefile{toc}{\contentsline {subsection}{\numberline {\unhbox \voidb@x \hbox {{\relax \fontsize  {12}{14pt}\selectfont  {\S  5}}.e}}32-bit Register \cite  {Lab15}}{14}}
\@writefile{toc}{\contentsline {subsubsection}{\numberline {\unhbox \voidb@x \hbox {{\relax \fontsize  {12}{14pt}\selectfont  {\S  5}}.e}-1}Design/Implementation}{14}}
\@writefile{toc}{\contentsline {subsubsection}{\numberline {\unhbox \voidb@x \hbox {{\relax \fontsize  {12}{14pt}\selectfont  {\S  5}}.e}-2}Testbench}{14}}
\newlabel{code:tb-dff}{{20}{14}}
\newlabel{cref@code:tb-dff}{{[listing][20][]20}{14}}
\@writefile{lol}{\contentsline {lstlisting}{\numberline {20}Testbench for the +ve Triggerd 1-bit Register}{14}}
\newlabel{code:reg}{{21}{14}}
\newlabel{cref@code:reg}{{[listing][21][]21}{14}}
\@writefile{lol}{\contentsline {lstlisting}{\numberline {21}1-bit and 32-bit Register At Gate Level}{14}}
\newlabel{code:reg1-tb}{{22}{15}}
\newlabel{cref@code:reg1-tb}{{[listing][22][]22}{15}}
\@writefile{lol}{\contentsline {lstlisting}{\numberline {22}Testbench for the +ve Triggerd 1-bit Register}{15}}
\newlabel{code:reg32-tb}{{23}{15}}
\newlabel{cref@code:reg32-tb}{{[listing][23][]23}{15}}
\@writefile{lol}{\contentsline {lstlisting}{\numberline {23}Testbench for the +ve Triggerd 32-bit Register}{15}}
\@writefile{lof}{\contentsline {figure}{\numberline {31}{\ignorespaces Waveform Results of +ve Triggered D-FF (a) and -ve Triggered D-FF (b)}}{15}}
\newlabel{f:tb-dff}{{31}{15}}
\newlabel{cref@f:tb-dff}{{[figure][31][]31}{15}}
\@writefile{lof}{\contentsline {figure}{\numberline {32}{\ignorespaces Schematic Diagram of 1-bit Register}}{15}}
\newlabel{f:r1}{{32}{15}}
\newlabel{cref@f:r1}{{[figure][32][]32}{15}}
\@writefile{toc}{\contentsline {subsection}{\numberline {\unhbox \voidb@x \hbox {{\relax \fontsize  {12}{14pt}\selectfont  {\S  5}}.f}}2-to-4 Line Decoder \cite  {Lab16}}{15}}
\@writefile{toc}{\contentsline {subsubsection}{\numberline {\unhbox \voidb@x \hbox {{\relax \fontsize  {12}{14pt}\selectfont  {\S  5}}.f}-1}Design/Implementation}{15}}
\citation{Lab16}
\@writefile{lof}{\contentsline {figure}{\numberline {33}{\ignorespaces Waveform of 1-bit Register Testbench}}{16}}
\newlabel{f:r1-tb}{{33}{16}}
\newlabel{cref@f:r1-tb}{{[figure][33][]33}{16}}
\@writefile{lof}{\contentsline {figure}{\numberline {34}{\ignorespaces Schematic Diagram of 32-bit Register}}{16}}
\newlabel{f:r32}{{34}{16}}
\newlabel{cref@f:r32}{{[figure][34][]34}{16}}
\@writefile{lof}{\contentsline {figure}{\numberline {35}{\ignorespaces Waveform of 32-bit Register Testbench}}{16}}
\newlabel{f:r32-tb}{{35}{16}}
\newlabel{cref@f:r32-tb}{{[figure][35][]35}{16}}
\@writefile{toc}{\contentsline {subsubsection}{\numberline {\unhbox \voidb@x \hbox {{\relax \fontsize  {12}{14pt}\selectfont  {\S  5}}.f}-2}Testbench}{16}}
\@writefile{toc}{\contentsline {subsection}{\numberline {\unhbox \voidb@x \hbox {{\relax \fontsize  {12}{14pt}\selectfont  {\S  5}}.g}}32x32 Register File at Gate Level Modeling \cite  {Lab16}}{16}}
\@writefile{toc}{\contentsline {subsubsection}{\numberline {\unhbox \voidb@x \hbox {{\relax \fontsize  {12}{14pt}\selectfont  {\S  5}}.g}-1}Design/Implementation}{16}}
\@writefile{toc}{\contentsline {subsubsection}{\numberline {\unhbox \voidb@x \hbox {{\relax \fontsize  {12}{14pt}\selectfont  {\S  5}}.g}-2}Testbench}{16}}
\newlabel{code:ld2x4}{{24}{16}}
\newlabel{cref@code:ld2x4}{{[listing][24][]24}{16}}
\@writefile{lol}{\contentsline {lstlisting}{\numberline {24}Implementation of 2-to-4 Line Decoder}{16}}
\@writefile{lof}{\contentsline {figure}{\numberline {36}{\ignorespaces Schematic Diagram of 2-to-4 Line Decoder}}{16}}
\newlabel{f:ld2x4}{{36}{16}}
\newlabel{cref@f:ld2x4}{{[figure][36][]36}{16}}
\@writefile{lof}{\contentsline {figure}{\numberline {37}{\ignorespaces Waveform of 2-to-4 Line Decoder Testbench}}{16}}
\newlabel{f:ld2x4-tb}{{37}{16}}
\newlabel{cref@f:ld2x4-tb}{{[figure][37][]37}{16}}
\@writefile{toc}{\contentsline {section}{\numberline {{\relax \fontsize  {12}{14pt}\selectfont  {\S  6}}}\textbf  {DESIGN \& IMPLEMENTATION OF PROCESSOR}}{16}}
\newlabel{s:proc}{{{\relax \fontsize  {12}{14pt}\selectfont  {\S  6}}}{16}}
\newlabel{cref@s:proc}{{[section][6][]{\relax \fontsize  {12}{14pt}\selectfont  {\S  6}}}{16}}
\citation{Lab17}
\newlabel{code:rf}{{25}{17}}
\newlabel{cref@code:rf}{{[listing][25][]25}{17}}
\@writefile{lol}{\contentsline {lstlisting}{\numberline {25}Register File Implementation At Gate Level}{17}}
\@writefile{lof}{\contentsline {figure}{\numberline {38}{\ignorespaces Schematic Diagram of 32x32-bit Register File}}{17}}
\newlabel{f:rf}{{38}{17}}
\newlabel{cref@f:rf}{{[figure][38][]38}{17}}
\@writefile{lof}{\contentsline {figure}{\numberline {39}{\ignorespaces Testbench results of 32x32 Register File in text format (a); in waveform (b)}}{17}}
\newlabel{f:rf-tb}{{39}{17}}
\newlabel{cref@f:rf-tb}{{[figure][39][]39}{17}}
\@writefile{toc}{\contentsline {subsection}{\numberline {\unhbox \voidb@x \hbox {{\relax \fontsize  {12}{14pt}\selectfont  {\S  6}}.a}}\textbf  {DATA PATH} \cite  {Lab17}}{17}}
\@writefile{toc}{\contentsline {subsubsection}{\numberline {\unhbox \voidb@x \hbox {{\relax \fontsize  {12}{14pt}\selectfont  {\S  6}}.a}-1}Design/Implementation}{17}}
\citation{Lab17}
\@writefile{lof}{\contentsline {figure}{\numberline {40}{\ignorespaces Schematic Diagram}}{18}}
\newlabel{f:dp}{{40}{18}}
\newlabel{cref@f:dp}{{[figure][40][]40}{18}}
\@writefile{toc}{\contentsline {subsubsection}{\numberline {\unhbox \voidb@x \hbox {{\relax \fontsize  {12}{14pt}\selectfont  {\S  6}}.a}-2}Testbench}{18}}
\@writefile{toc}{\contentsline {subsection}{\numberline {\unhbox \voidb@x \hbox {{\relax \fontsize  {12}{14pt}\selectfont  {\S  6}}.b}}\textbf  {Design/Implementation of CONTROL UNIT}\cite  {Lab17}}{18}}
\newlabel{code:proc}{{26}{19}}
\newlabel{cref@code:proc}{{[listing][26][]26}{19}}
\@writefile{lol}{\contentsline {lstlisting}{\numberline {26}Exceprt of Processor.v}{19}}
\@writefile{lof}{\contentsline {figure}{\numberline {41}{\ignorespaces Compile Result of the All Verilog Files}}{19}}
\newlabel{f:compile-all}{{41}{19}}
\newlabel{cref@f:compile-all}{{[figure][41][]41}{19}}
\newlabel{code:dp}{{27}{19}}
\newlabel{cref@code:dp}{{[listing][27][]27}{19}}
\@writefile{lol}{\contentsline {lstlisting}{\numberline {27}Exceprt of Data Path Implementation}{19}}
\citation{Lab17}
\@writefile{lof}{\contentsline {figure}{\numberline {42}{\ignorespaces Testbench Result of Data Path in Waveform}}{20}}
\newlabel{f:dp-tb-wave}{{42}{20}}
\newlabel{cref@f:dp-tb-wave}{{[figure][42][]42}{20}}
\@writefile{toc}{\contentsline {section}{\numberline {{\relax \fontsize  {12}{14pt}\selectfont  {\S  7}}}\textbf  {DESIGN \& IMPLEMENTATION OF MEMORY}}{20}}
\newlabel{s:mem}{{{\relax \fontsize  {12}{14pt}\selectfont  {\S  7}}}{20}}
\newlabel{cref@s:mem}{{[section][7][]{\relax \fontsize  {12}{14pt}\selectfont  {\S  7}}}{20}}
\@writefile{toc}{\contentsline {subsection}{\numberline {\unhbox \voidb@x \hbox {{\relax \fontsize  {12}{14pt}\selectfont  {\S  7}}.a}}Design/Implementation of Memory Wrapper}{20}}
\@writefile{toc}{\contentsline {subsection}{\numberline {\unhbox \voidb@x \hbox {{\relax \fontsize  {12}{14pt}\selectfont  {\S  7}}.b}}Testbench of Memory Wrapper}{20}}
\@writefile{toc}{\contentsline {section}{\numberline {{\relax \fontsize  {12}{14pt}\selectfont  {\S  8}}}\textbf  {DaVinci System Testbench\cite  {Lab17}}}{20}}
\newlabel{s:davinci-tb}{{{\relax \fontsize  {12}{14pt}\selectfont  {\S  8}}}{20}}
\newlabel{cref@s:davinci-tb}{{[section][8][]{\relax \fontsize  {12}{14pt}\selectfont  {\S  8}}}{20}}
\newlabel{code:cu}{{28}{20}}
\newlabel{cref@code:cu}{{[listing][28][]28}{20}}
\@writefile{lol}{\contentsline {lstlisting}{\numberline {28}Exceprt of control unit}{20}}
\bibcite{verilog}{1}
\bibcite{Lab11}{2}
\bibcite{Lab12}{3}
\bibcite{Lab13}{4}
\@writefile{lof}{\contentsline {figure}{\numberline {43}{\ignorespaces Control Signal Table for R-type Micro-instruction Calculation}}{21}}
\newlabel{f:micro-R}{{43}{21}}
\newlabel{cref@f:micro-R}{{[figure][43][]43}{21}}
\@writefile{lof}{\contentsline {figure}{\numberline {44}{\ignorespaces Control Signal Table for I-type Micro-instruction Calculation}}{21}}
\newlabel{f:micro-I}{{44}{21}}
\newlabel{cref@f:micro-I}{{[figure][44][]44}{21}}
\@writefile{lof}{\contentsline {figure}{\numberline {45}{\ignorespaces Control Signal Table for J-type Micro-instruction Calculation}}{21}}
\newlabel{f:micro-J}{{45}{21}}
\newlabel{cref@f:micro-J}{{[figure][45][]45}{21}}
\@writefile{toc}{\contentsline {section}{\numberline {{\relax \fontsize  {12}{14pt}\selectfont  {\S  9}}}\textbf  {Conclusion}}{21}}
\newlabel{s:conclusion}{{{\relax \fontsize  {12}{14pt}\selectfont  {\S  9}}}{21}}
\newlabel{cref@s:conclusion}{{[section][9][]{\relax \fontsize  {12}{14pt}\selectfont  {\S  9}}}{21}}
\@writefile{toc}{\contentsline {section}{\relax \fontsize  {14}{17pt}\selectfont  References}{21}}
\@writefile{lot}{\contentsline {table}{\numberline {I}{\ignorespaces Module List in Verilog Files}}{22}}
\newlabel{table:summary}{{I}{22}}
\newlabel{cref@table:summary}{{[table][1][]I}{22}}
\bibcite{Lab14}{5}
\bibcite{Lab15}{6}
\bibcite{Lab16}{7}
\bibcite{Lab17}{8}
\bibcite{Lect9}{9}
\bibcite{Lect1}{10}
\bibcite{Lect11}{11}
\newlabel{code:mem-wrapper}{{29}{23}}
\newlabel{cref@code:mem-wrapper}{{[listing][29][]29}{23}}
\@writefile{lol}{\contentsline {lstlisting}{\numberline {29}Possible Gate-Level Model for Memory Wapper}{23}}
\@writefile{lof}{\contentsline {figure}{\numberline {46}{\ignorespaces Testbench output of memory in text output (a); in waveform (b); and memory dump outputs (c)}}{23}}
\newlabel{f:davinci}{{46}{23}}
\newlabel{cref@f:davinci}{{[figure][46][]46}{23}}
\@writefile{lof}{\contentsline {figure}{\numberline {47}{\ignorespaces Waveform Result of Testbench of the DaVinci v1.0m}}{23}}
\newlabel{f:davinci-tb}{{47}{23}}
\newlabel{cref@f:davinci-tb}{{[figure][47][]47}{23}}
\newlabel{code:output}{{30}{24}}
\newlabel{cref@code:output}{{[listing][30][]30}{24}}
\@writefile{lol}{\contentsline {lstlisting}{\numberline {30}Text Output of Loading Testbench of DaVinci System}{24}}
